%YAML 1.1
%TAG !u! tag:unity3d.com,2011:
--- !u!114 &11400000
MonoBehaviour:
  m_ObjectHideFlags: 0
  m_CorrespondingSourceObject: {fileID: 0}
  m_PrefabInstance: {fileID: 0}
  m_PrefabAsset: {fileID: 0}
  m_GameObject: {fileID: 0}
  m_Enabled: 1
  m_EditorHideFlags: 0
  m_Script: {fileID: 11500000, guid: c2b9cd8077e3b324bb1a5c1249dc70fb, type: 3}
  m_Name: 3E5166B5-527D-4163-BB56-BCA3F403E586
  m_EditorClassIdentifier: 
  objectName: Shoot
  id: 3038207054
  guid: 3E5166B5-527D-4163-BB56-BCA3F403E586
