%YAML 1.1
%TAG !u! tag:unity3d.com,2011:
--- !u!114 &11400000
MonoBehaviour:
  m_ObjectHideFlags: 0
  m_CorrespondingSourceObject: {fileID: 0}
  m_PrefabInstance: {fileID: 0}
  m_PrefabAsset: {fileID: 0}
  m_GameObject: {fileID: 0}
  m_Enabled: 1
  m_EditorHideFlags: 0
  m_Script: {fileID: 11500000, guid: 80925a758160e154fb3b53c48051de58, type: 3}
  m_Name: AkWwiseProjectData
  m_EditorClassIdentifier: 
  AcousticTextureWwu:
  - PhysicalPath: Virtual Acoustics\Default Work Unit.wwu
    PathAndIcons:
    - ElementName: Virtual Acoustics
      ObjectType: 5
      guid: 00000000000000000000000000000000
    - ElementName: Default Work Unit
      ObjectType: 12
      guid: b27c4b66954c444d8694071e75f10c6f
    ParentPath: Virtual Acoustics\Default Work Unit
    guid: b27c4b66954c444d8694071e75f10c6f
    GuidInternal: 
    m_lastTime: -8585106170165850379
    List: []
  AuxBusWwu:
  - PhysicalPath: Master-Mixer Hierarchy\Default Work Unit.wwu
    PathAndIcons:
    - ElementName: Master-Mixer Hierarchy
      ObjectType: 5
      guid: 00000000000000000000000000000000
    - ElementName: Default Work Unit
      ObjectType: 12
      guid: 845bb703bd126840b52f248ab2530e3b
    ParentPath: Master-Mixer Hierarchy\Default Work Unit
    guid: 845bb703bd126840b52f248ab2530e3b
    GuidInternal: 
    m_lastTime: -8585106170166390486
    List:
    - name: Master Audio Bus
      guid: d8a41415a61d2a41a17e75ca0c2149f3
      id: 3803692087
      PathAndIcons:
      - ElementName: Master-Mixer Hierarchy
        ObjectType: 5
        guid: 00000000000000000000000000000000
      - ElementName: Default Work Unit
        ObjectType: 12
        guid: 845bb703bd126840b52f248ab2530e3b
      - ElementName: Master Audio Bus
        ObjectType: 2
        guid: d8a41415a61d2a41a17e75ca0c2149f3
      Path: Master-Mixer Hierarchy\Default Work Unit\Master Audio Bus
  BankWwu:
  - PhysicalPath: SoundBanks\Default Work Unit.wwu
    PathAndIcons:
    - ElementName: SoundBanks
      ObjectType: 5
      guid: 00000000000000000000000000000000
    - ElementName: Default Work Unit
      ObjectType: 12
      guid: c87f289b409b2d4eb37984fe2c84bdfd
    ParentPath: SoundBanks\Default Work Unit
    guid: c87f289b409b2d4eb37984fe2c84bdfd
    GuidInternal: 
    m_lastTime: -8585106107263568336
    List:
    - name: SoundBank
      guid: a353d183515d434aa16bd2c87da52fe2
      id: 1661994096
      PathAndIcons:
      - ElementName: SoundBanks
        ObjectType: 5
        guid: 00000000000000000000000000000000
      - ElementName: Default Work Unit
        ObjectType: 12
        guid: c87f289b409b2d4eb37984fe2c84bdfd
      - ElementName: SoundBank
        ObjectType: 7
        guid: a353d183515d434aa16bd2c87da52fe2
      Path: SoundBanks\Default Work Unit\SoundBank
  EventWwu:
  - PhysicalPath: Events\Default Work Unit.wwu
    PathAndIcons:
    - ElementName: Events
      ObjectType: 5
      guid: 00000000000000000000000000000000
    - ElementName: Default Work Unit
      ObjectType: 12
      guid: 882d9d5964e45948828fa8ca3a33e2c8
    ParentPath: Events\Default Work Unit
    guid: 882d9d5964e45948828fa8ca3a33e2c8
    GuidInternal: 
    m_lastTime: -8585106105375950496
    List:
    - name: Background
      guid: 6d2538a82d1d634788b6f2eb5ed891cc
      id: 3650723969
      PathAndIcons:
      - ElementName: Events
        ObjectType: 5
        guid: 00000000000000000000000000000000
      - ElementName: Default Work Unit
        ObjectType: 12
        guid: 882d9d5964e45948828fa8ca3a33e2c8
      - ElementName: Background
        ObjectType: 3
        guid: 6d2538a82d1d634788b6f2eb5ed891cc
      Path: Events\Default Work Unit\Background
      maxAttenuation: 0
      maxDuration: -1
      minDuration: -1
    - name: Buff
      guid: fdb08f821746f848a5e3d8ea0f218b9d
      id: 1612179606
      PathAndIcons:
      - ElementName: Events
        ObjectType: 5
        guid: 00000000000000000000000000000000
      - ElementName: Default Work Unit
        ObjectType: 12
        guid: 882d9d5964e45948828fa8ca3a33e2c8
      - ElementName: Buff
        ObjectType: 3
        guid: fdb08f821746f848a5e3d8ea0f218b9d
      Path: Events\Default Work Unit\Buff
      maxAttenuation: 0
      maxDuration: 1.9853061
      minDuration: 1.9853061
    - name: Dash
      guid: b4f353661e5edf4fb4d0d2f66194bd53
      id: 1942692385
      PathAndIcons:
      - ElementName: Events
        ObjectType: 5
        guid: 00000000000000000000000000000000
      - ElementName: Default Work Unit
        ObjectType: 12
        guid: 882d9d5964e45948828fa8ca3a33e2c8
      - ElementName: Dash
        ObjectType: 3
        guid: b4f353661e5edf4fb4d0d2f66194bd53
      Path: Events\Default Work Unit\Dash
      maxAttenuation: 0
      maxDuration: 0.3271882
      minDuration: 0.3271882
    - name: Debuff
      guid: eacaf5db32b8a741b56ffbf454d89be9
      id: 712408855
      PathAndIcons:
      - ElementName: Events
        ObjectType: 5
        guid: 00000000000000000000000000000000
      - ElementName: Default Work Unit
        ObjectType: 12
        guid: 882d9d5964e45948828fa8ca3a33e2c8
      - ElementName: Debuff
        ObjectType: 3
        guid: eacaf5db32b8a741b56ffbf454d89be9
      Path: Events\Default Work Unit\Debuff
      maxAttenuation: 0
      maxDuration: 1.077551
      minDuration: 1.077551
    - name: Shoot
      guid: b566513e7d526341bb56bca3f403e586
      id: 3038207054
      PathAndIcons:
      - ElementName: Events
        ObjectType: 5
        guid: 00000000000000000000000000000000
      - ElementName: Default Work Unit
        ObjectType: 12
        guid: 882d9d5964e45948828fa8ca3a33e2c8
      - ElementName: Shoot
        ObjectType: 3
        guid: b566513e7d526341bb56bca3f403e586
      Path: Events\Default Work Unit\Shoot
      maxAttenuation: 0
      maxDuration: 1.0038549
      minDuration: 1.0038549
  RtpcWwu:
  - PhysicalPath: Game Parameters\Default Work Unit.wwu
    PathAndIcons:
    - ElementName: Game Parameters
      ObjectType: 5
      guid: 00000000000000000000000000000000
    - ElementName: Default Work Unit
      ObjectType: 12
      guid: a080597c6c79b74eaba12decb295c5e0
    ParentPath: Game Parameters\Default Work Unit
    guid: a080597c6c79b74eaba12decb295c5e0
    GuidInternal: 
    m_lastTime: -8585106170166110531
    List: []
  StateWwu:
  - PhysicalPath: States\Default Work Unit.wwu
    PathAndIcons:
    - ElementName: States
      ObjectType: 5
      guid: 00000000000000000000000000000000
    - ElementName: Default Work Unit
      ObjectType: 12
      guid: 091e8bbcaa01824f9b8e84422e6b377e
    ParentPath: States\Default Work Unit
    guid: 091e8bbcaa01824f9b8e84422e6b377e
    GuidInternal: 
    m_lastTime: -8585106170166280442
    List: []
  SwitchWwu:
  - PhysicalPath: Switches\Default Work Unit.wwu
    PathAndIcons:
    - ElementName: Switches
      ObjectType: 5
      guid: 00000000000000000000000000000000
    - ElementName: Default Work Unit
      ObjectType: 12
      guid: 29248541080b4c4faa915cb3d24a4438
    ParentPath: Switches\Default Work Unit
    guid: 29248541080b4c4faa915cb3d24a4438
    GuidInternal: 
    m_lastTime: -8585106170166450635
    List: []
  TriggerWwu:
  - PhysicalPath: Triggers\Default Work Unit.wwu
    PathAndIcons:
    - ElementName: Triggers
      ObjectType: 5
      guid: 00000000000000000000000000000000
    - ElementName: Default Work Unit
      ObjectType: 12
      guid: b4cd221b5e7b18498920a43621a2a150
    ParentPath: Triggers\Default Work Unit
    guid: b4cd221b5e7b18498920a43621a2a150
    GuidInternal: 
    m_lastTime: -8585106170166030508
    List: []
  ExpandedFileSystemItemIds: 
  ExpandedWaapiItemIds: 03000000040000000600000007000000090000000a0000000b0000000c0000000e00000010000000120000001400000062000000630000007e0000007f00000098000000990000009a0000009b0000009e0000009f000000ac000000ad000000b3000000b4000000d5000000d6000000d7000000e6000000f5000000f6000000080100000d0100000e01000010010000110100002b0100002c010000480100004901000054010000650100008d01000091010000920100009f010000a7010000c7010000ca010000da010000e9010000
  AutoSyncSelection: 0
  autoPopulateEnabled: 1
  currentDataSource: 0
  CurrentPluginConfig: 
